SimpleChannelTester/vivado/.Xil/Vivado-10298-carlositcr-HP-ProBook-640-G1/hw_ila_data_1/zip_work/waveform.vcd
$date
        2021-May-20 16:56:12
$end
$version
        Vivado v2018.3 (64-bit)
$end
$timescale
        1ps
$end
$scope module dut $end
$var reg 32 " SimpleTester_i/SimpleGenerator_0_input_r_TDATA_0 [31:0] $end
$var reg 1 B SimpleTester_i/SimpleGenerator_0_input_r_TLAST_0 $end
$var reg 1 C SimpleTester_i/SimpleGenerator_0_input_r_TVALID_0 $end
$var reg 1 D SimpleTester_i/packaging_IP_block_0_input_r_TREADY $end
$var reg 32 E SimpleTester_i/unpackaging_IP_block_0_output_r_TDATA [31:0] $end
$var reg 1 e SimpleTester_i/unpackaging_IP_block_0_output_r_TLAST $end
$var reg 1 f SimpleTester_i/unpackaging_IP_block_0_output_r_TVALID $end
$var reg 1 g SimpleTester_i/SimpleChecker_0_output_r_TREADY_0 $end
$var reg 4 h SimpleTester_i/SimpleChecker_0_Error_Counter [3:0] $end
$var reg 1 l SimpleTester_i/prll_bs_gnrtr_n_rbtr_0_push_drvr_0_bus_0 $end
$var reg 1 m SimpleTester_i/unpackaging_IP_block_0_in_fifo_V_read $end
$var reg 1 n SimpleTester_i/packaging_IP_block_0_out_fifo_V_write $end
$var reg 1 o SimpleTester_i/prll_bs_gnrtr_n_rbtr_0_pop_drvr_0_bus_0 $end
$var reg 1 p SimpleTester_i/prll_bs_gnrtr_n_rbtr_0_push_drvr_1_bus_0 $end
$var reg 1 q SimpleTester_i/prll_bs_gnrtr_n_rbtr_0_pop_drvr_1_bus_0 $end
$var reg 1 r _TRIGGER $end
$var reg 1 s _WINDOW $end
$var reg 1 t _GAP $end
$upscope $end
$enddefinitions $end
#0
$dumpvars
b11011001 "
0B
0C
1D
b10101010 E
0e
0f
1g
b0 h
0l
0m
0n
0o
0p
0q
0r
1s
0t
$end
#4096
1q
1r
#4097
0q
#4100
1l
#4101
0l
#4102
1m
#4103
0m
#4109
b0 E
#4111
b11001000 E
#4112
b11001001 E
#4113
b11001010 E
#4114
b11001011 E
#4171
1q
#4172
0q
#4177
1l
#4178
0l
#4179
1m
#4180
0m
#4186
b11001100 E
#4187
b1000100000000000000001 E
#4188
b0 E
#4190
b11001000 E
#4191
b10101011 E
#4245
1q
#4246
0q
#4250
1l
#4251
0l
#4252
1m
#4253
0m
#4259
b10101100 E
#4260
b10101101 E
#4261
b10101110 E
#4262
b11101000000000000000000011101 E
#4263
b0 E
#4319
1q
#4320
0q
#4393
1q
#4394
0q
#4397
1l
#4398
0l
#4399
1m
#4400
0m
#4406
b10101010 E
#4407
b10101011 E
#4408
b10101100 E
#4409
b10101101 E
#4410
b10101110 E
#4411
b11101000000000000000000011101 E
#4468
1q
#4469
0q
#4542
1q
#4543
0q
#4547
1l
#4548
0l
#4549
1m
#4550
0m
#4556
b0 E
#4558
b10101010 E
#4559
b10101011 E
#4560
b10101100 E
#4561
b10101101 E
#4616
1q
#4617
0q
#4620
1l
#4621
0l
#4622
1m
#4623
0m
#4629
b10101110 E
#4630
b11101000000000000000000011101 E
#4631
b0 E
#4633
b10101010 E
#4634
b10101011 E
#4690
1q
#4691
0q
#4765
1q
#4766
0q
#4771
1l
#4772
0l
#4773
1m
#4774
0m
#4780
b10110000 E
#4781
b10110001 E
#4782
b10110010 E
#4783
b10110011 E
#4784
b10110100 E
#4785
b11110000000000000000001100000 E
#4839
1q
#4840
0q
#4844
1l
#4845
0l
#4846
1m
#4847
0m
#4853
b0 E
#4855
b10110000 E
#4856
b10110001 E
#4857
b10110010 E
#4858
b10110011 E
#4913
1q
#4914
0q
#4987
1q
#4988
0q
#4991
1l
#4992
0l
#4993
1m
#4994
0m
#5000
b10110100 E
#5001
b11110000000000000000001100000 E
#5002
b0 E
#5004
b10110000 E
#5005
b10110001 E
#5062
1q
#5063
0q
#5068
1l
#5069
0l
#5070
1m
#5071
0m
#5077
b10110010 E
#5078
b10110011 E
#5079
b10110100 E
#5080
b11110000000000000000001100000 E
#5081
b0 E
#5136
1q
#5137
0q
#5141
1l
#5142
0l
#5143
1m
#5144
0m
#5150
b10110000 E
#5151
b10110001 E
#5152
b10110010 E
#5153
b10110011 E
#5154
b10110100 E
#5155
b11110000000000000000001100000 E
#5210
1q
#5211
0q
#5214
1l
#5215
0l
#5216
1m
#5217
0m
#5223
b0 E
#5225
b10110000 E
#5226
b10110001 E
#5227
b10110010 E
#5228
b10110011 E
#5284
1q
#5285
0q
#5288
1l
#5289
0l
#5290
1m
#5291
0m
#5297
b10110100 E
#5298
b11110000000000000000001100000 E
#5299
b0 E
#5301
b10110000 E
#5302
b10110001 E
#5358
1q
#5359
0q
#5433
1q
#5434
0q
#5439
1l
#5440
0l
#5441
1m
#5442
0m
#5448
b10110010 E
#5449
b10110110 E
#5450
b10110111 E
#5451
b10111000 E
#5452
b10111001 E
#5453
b10111010 E
#5507
1q
#5508
0q
#5581
1q
#5582
0q
#5655
1q
#5656
0q
#5659
1l
#5660
0l
#5661
1m
#5662
0m
#5668
b11111000000000000000000011111 E
#5669
b0 E
#5671
b10110110 E
#5672
b10110111 E
#5673
b10111000 E
#5730
1q
#5731
0q
#5736
1l
#5737
0l
#5738
1m
#5739
0m
#5745
b10111001 E
#5746
b10111010 E
#5747
b11111000000000000000000011111 E
#5748
b0 E
#5750
b10110110 E
#5804
1q
#5805
0q
#5809
1l
#5810
0l
#5811
1m
#5812
0m
#5818
b10110111 E
#5819
b10111000 E
#5820
b10111001 E
#5821
b10111010 E
#5822
b11111000000000000000000011111 E
#5823
b0 E
#5878
1q
#5879
0q
#5952
1q
#5953
0q
#6027
1q
#6028
0q
#6033
1l
#6034
0l
#6035
1m
#6036
0m
#6043
b10110110 E
#6044
b10110111 E
#6045
b10111000 E
#6046
b10111001 E
#6047
b10111010 E
#6101
1q
#6102
0q
#6106
1l
#6107
0l
#6108
1m
#6109
0m
#6115
b11111000000000000000000011111 E
#6116
b0 E
#6118
b10110110 E
#6119
b10110111 E
#6120
b10111000 E
#6175
1q
#6176
0q
#6179
1l
#6180
0l
#6181
1m
#6182
0m
#6188
b10111001 E
#6189
b10111010 E
#6190
b11111000000000000000000011111 E
#6191
b0 E
#6193
b10110110 E
#6249
1q
#6250
0q
#6253
1l
#6254
0l
#6255
1m
#6256
0m
#6262
b10110111 E
#6263
b10111000 E
#6264
b10111001 E
#6265
b10111010 E
#6266
b10111100 E
#6267
b10111101 E
#6324
1q
#6325
0q
#6330
1l
#6331
0l
#6332
1m
#6333
0m
#6339
b10111110 E
#6340
b10111111 E
#6341
b11000000 E
#6342
b100000000000000000000000100000 E
#6343
b0 E
#6398
1q
#6399
0q
#6403
1l
#6404
0l
#6405
1m
#6406
0m
#6412
b10111100 E
#6413
b10111101 E
#6414
b10111110 E
#6415
b10111111 E
#6416
b11000000 E
#6417
b100000000000000000000000100000 E
#6472
1q
#6473
0q
#6546
1q
#6547
0q
#6621
1q
#6622
0q
