SimpleChannelTester/vivado/.Xil/Vivado-23261-carlositcr-HP-ProBook-640-G1/hw_ila_data_1/zip_work/waveform.vcd
$date
        2021-May-10 23:25:45
$end
$version
        Vivado v2018.3 (64-bit)
$end
$timescale
        1ps
$end
$scope module dut $end
$var reg 256 " Design1_i/packaging_IP_block_0_out_fifo_V_din [255:0] $end
$var reg 1 f# Design1_i/inverter_0_Y $end
$var reg 1 g# Design1_i/packaging_IP_block_0_out_fifo_V_write $end
$var reg 256 h# Design1_i/fifo_generator_0_dout [255:0] $end
$var reg 1 N& Design1_i/inverter_2_Y $end
$var reg 1 O& Design1_i/unpackaging_IP_block_0_in_fifo_V_read $end
$var reg 256 P& Design1_i/fifo_generator_3_dout [255:0] $end
$var reg 1 6) Design1_i/prll_bs_gnrtr_n_rbtr_0_pop_drvr_1_bus_0 $end
$var reg 1 7) Design1_i/fifo_generator_3_empty $end
$var reg 256 8) Design1_i/prll_bs_gnrtr_n_rbtr_0_D_push_drvr_1_bus_0 [255:0] $end
$var reg 1 |+ Design1_i/prll_bs_gnrtr_n_rbtr_0_push_drvr_1_bus_0 $end
$var reg 1 }+ _TRIGGER $end
$var reg 1 ~+ _WINDOW $end
$var reg 1 !, _GAP $end
$upscope $end
$enddefinitions $end
#0
$dumpvars
b1000000000000000000000000000000000000000000000000000000000000000000000000000000000000000000000000000000000000000000000000000000000000000000000000000000000000000000000000000000000000000000000000000000000000000000000000000000000000000000000000 "
1f#
0g#
b0 h#
0N&
0O&
b0 P&
06)
17)
b0 8)
0|+
0}+
1~+
0!,
$end
#8136
b1000000000000000000000000000000010000000000000000000000000000000000000000000000000000000000000000000000000000000000000000000000000000000000000000000000000000000000000000000000000000000000000000000000000000000000000000000000000000000000000000 "
#8140
b100000001000000000000000000000000000000010000000000000000000000000000000000000000000000000000000000000000000000000000000000000000000000000000000000000000000000000000000000000000000000000000000000000000000000000000000000000000000000000000000000000000 "
#8160
b100000001000000000000000000000000000000010000000000011000000000000000000000000000000000000000000000000000000000000000000000000000000000000000000000000000000000000000000000000000000000000000000000000000000000000000000000000000000000000000000000000000 "
#8162
b100000001000000000000000000000000000000010000000000011000000000000000000000000000000000000000000000000000000000000000000000000000000000000000000000000000000000000000000000000000000000000000000000000000000000000000000100000000000000000000000000000001 "
#8164
b100000001000000000000000000000000000000010000000000011000000000000000000000000000000000000000000000000000000000000000000000000000000000000000000000000001000000000000000000000000000000010000000000000000000000000000000100000000000000000000000000000001 "
#8166
b100000001000000000000000000000000000000010000000000011000000000000000000000000000000000010000000000000000000000000000000100000000000000000000000000000001000000000000000000000000000000010000000000000000000000000000000100000000000000000000000000000001 "
1g#
#8168
0g#
#8170
b100000001000000000000000100000000000000010000000000011000000000000000000000000000000000010000000000000000000000000000000100000000000000000000000000000001000000000000000000000000000000010000000000000000000000000000000100000000000000000000000000000001 "
#8188
b100000001000000000000000000000000000000010000000000011000000000000000000000000000000000010000000000000000000000000000000100000000000000000000000000000001000000000000000000000000000000010000000000000000000000000000000100000000000000000000000000000001 8)
#8192
1|+
1}+
#8194
1g#
b0 8)
0|+
#8196
0g#
#8198
b100000001000000000000001000000000000000010000000000011000000000000000000000000000000000010000000000000000000000000000000100000000000000000000000000000001000000000000000000000000000000010000000000000000000000000000000100000000000000000000000000000001 "
#8210
b100000001000000000000000100000000000000010000000000011000000000000000000000000000000000010000000000000000000000000000000100000000000000000000000000000001000000000000000000000000000000010000000000000000000000000000000100000000000000000000000000000001 8)
#8214
1|+
#8216
b0 8)
0|+
#8222
1g#
#8224
0g#
#8226
b100000001000000000000001100000000000000010000000000011000000000000000000000000000000000010000000000000000000000000000000100000000000000000000000000000001000000000000000000000000000000010000000000000000000000000000000100000000000000000000000000000001 "
#8234
b100000001000000000000001000000000000000010000000000011000000000000000000000000000000000010000000000000000000000000000000100000000000000000000000000000001000000000000000000000000000000010000000000000000000000000000000100000000000000000000000000000001 8)
#8238
1|+
#8240
b0 8)
0|+
#8250
1g#
#8252
0g#
#8254
b100000001000000000000010000000000000000010000000000011000000000000000000000000000000000010000000000000000000000000000000100000000000000000000000000000001000000000000000000000000000000010000000000000000000000000000000100000000000000000000000000000001 "
#8276
b100000001000000000000001100000000000000010000000000011000000000000000000000000000000000010000000000000000000000000000000100000000000000000000000000000001000000000000000000000000000000010000000000000000000000000000000100000000000000000000000000000001 8)
#8278
1g#
#8280
0g#
1|+
#8282
b100000001000000000000010100000000000000010000000000011000000000000000000000000000000000010000000000000000000000000000000100000000000000000000000000000001000000000000000000000000000000010000000000000000000000000000000100000000000000000000000000000001 "
b0 8)
0|+
#8298
b100000001000000000000010000000000000000010000000000011000000000000000000000000000000000010000000000000000000000000000000100000000000000000000000000000001000000000000000000000000000000010000000000000000000000000000000100000000000000000000000000000001 8)
#8302
1|+
#8304
b0 8)
0|+
#8306
1g#
#8308
0g#
#8310
b100000001000000000000011000000000000000010000000000011000000000000000000000000000000000010000000000000000000000000000000100000000000000000000000000000001000000000000000000000000000000010000000000000000000000000000000100000000000000000000000000000001 "
#8320
b100000001000000000000010100000000000000010000000000011000000000000000000000000000000000010000000000000000000000000000000100000000000000000000000000000001000000000000000000000000000000010000000000000000000000000000000100000000000000000000000000000001 8)
#8324
1|+
#8326
b0 8)
0|+
#8334
1g#
#8336
0g#
#8338
b100000001000000000000011100000000000000010000000000011000000000000000000000000000000000010000000000000000000000000000000100000000000000000000000000000001000000000000000000000000000000010000000000000000000000000000000100000000000000000000000000000001 "
#8362
1g#
b100000001000000000000011000000000000000010000000000011000000000000000000000000000000000010000000000000000000000000000000100000000000000000000000000000001000000000000000000000000000000010000000000000000000000000000000100000000000000000000000000000001 8)
#8364
0g#
#8366
b100000001000000000000100000000000000000010000000000011000000000000000000000000000000000010000000000000000000000000000000100000000000000000000000000000001000000000000000000000000000000010000000000000000000000000000000100000000000000000000000000000001 "
1|+
#8368
b0 8)
0|+
#8384
b100000001000000000000011100000000000000010000000000011000000000000000000000000000000000010000000000000000000000000000000100000000000000000000000000000001000000000000000000000000000000010000000000000000000000000000000100000000000000000000000000000001 8)
#8388
1|+
#8390
1g#
b0 8)
0|+
#8392
0g#
#8394
b100000001000000000000100100000000000000010000000000011000000000000000000000000000000000010000000000000000000000000000000100000000000000000000000000000001000000000000000000000000000000010000000000000000000000000000000100000000000000000000000000000001 "
#8406
b100000001000000000000100000000000000000010000000000011000000000000000000000000000000000010000000000000000000000000000000100000000000000000000000000000001000000000000000000000000000000010000000000000000000000000000000100000000000000000000000000000001 8)
#8410
1|+
#8412
b0 8)
0|+
#8418
1g#
#8420
0g#
#8422
b100000001000000000000101000000000000000010000000000011000000000000000000000000000000000010000000000000000000000000000000100000000000000000000000000000001000000000000000000000000000000010000000000000000000000000000000100000000000000000000000000000001 "
#8430
b100000001000000000000100100000000000000010000000000011000000000000000000000000000000000010000000000000000000000000000000100000000000000000000000000000001000000000000000000000000000000010000000000000000000000000000000100000000000000000000000000000001 8)
#8434
1|+
#8436
b0 8)
0|+
#8446
1g#
#8448
0g#
#8450
b100000001000000000000101100000000000000010000000000011000000000000000000000000000000000010000000000000000000000000000000100000000000000000000000000000001000000000000000000000000000000010000000000000000000000000000000100000000000000000000000000000001 "
#8472
b100000001000000000000101000000000000000010000000000011000000000000000000000000000000000010000000000000000000000000000000100000000000000000000000000000001000000000000000000000000000000010000000000000000000000000000000100000000000000000000000000000001 8)
#8474
1g#
#8476
0g#
1|+
#8478
b100000001000000000000110000000000000000010000000000011000000000000000000000000000000000010000000000000000000000000000000100000000000000000000000000000001000000000000000000000000000000010000000000000000000000000000000100000000000000000000000000000001 "
b0 8)
0|+
#8494
b100000001000000000000101100000000000000010000000000011000000000000000000000000000000000010000000000000000000000000000000100000000000000000000000000000001000000000000000000000000000000010000000000000000000000000000000100000000000000000000000000000001 8)
#8498
1|+
#8500
b0 8)
0|+
#8502
1g#
#8504
0g#
#8506
b100000001000000000000110100000000000000010000000000011000000000000000000000000000000000010000000000000000000000000000000100000000000000000000000000000001000000000000000000000000000000010000000000000000000000000000000100000000000000000000000000000001 "
#8516
b100000001000000000000110000000000000000010000000000011000000000000000000000000000000000010000000000000000000000000000000100000000000000000000000000000001000000000000000000000000000000010000000000000000000000000000000100000000000000000000000000000001 8)
#8520
1|+
#8522
b0 8)
0|+
#8530
1g#
#8532
0g#
#8534
b100000001000000000000111000000000000000010000000000011000000000000000000000000000000000010000000000000000000000000000000100000000000000000000000000000001000000000000000000000000000000010000000000000000000000000000000100000000000000000000000000000001 "
#8558
1g#
b100000001000000000000110100000000000000010000000000011000000000000000000000000000000000010000000000000000000000000000000100000000000000000000000000000001000000000000000000000000000000010000000000000000000000000000000100000000000000000000000000000001 8)
#8560
0g#
#8562
b100000001000000000000111100000000000000010000000000011000000000000000000000000000000000010000000000000000000000000000000100000000000000000000000000000001000000000000000000000000000000010000000000000000000000000000000100000000000000000000000000000001 "
1|+
#8564
b0 8)
0|+
#8580
b100000001000000000000111000000000000000010000000000011000000000000000000000000000000000010000000000000000000000000000000100000000000000000000000000000001000000000000000000000000000000010000000000000000000000000000000100000000000000000000000000000001 8)
#8584
1|+
#8586
1g#
b0 8)
0|+
#8588
0g#
#8590
b100000001000000000001000000000000000000010000000000011000000000000000000000000000000000010000000000000000000000000000000100000000000000000000000000000001000000000000000000000000000000010000000000000000000000000000000100000000000000000000000000000001 "
#8602
b100000001000000000000111100000000000000010000000000011000000000000000000000000000000000010000000000000000000000000000000100000000000000000000000000000001000000000000000000000000000000010000000000000000000000000000000100000000000000000000000000000001 8)
#8606
1|+
#8608
b0 8)
0|+
#8614
1g#
#8616
0g#
#8618
b100000001000000000001000100000000000000010000000000011000000000000000000000000000000000010000000000000000000000000000000100000000000000000000000000000001000000000000000000000000000000010000000000000000000000000000000100000000000000000000000000000001 "
#8626
b100000001000000000001000000000000000000010000000000011000000000000000000000000000000000010000000000000000000000000000000100000000000000000000000000000001000000000000000000000000000000010000000000000000000000000000000100000000000000000000000000000001 8)
#8630
1|+
#8632
b0 8)
0|+
#8642
1g#
#8644
0g#
#8646
b100000001000000000001001000000000000000010000000000011000000000000000000000000000000000010000000000000000000000000000000100000000000000000000000000000001000000000000000000000000000000010000000000000000000000000000000100000000000000000000000000000001 "
#8668
b100000001000000000001000100000000000000010000000000011000000000000000000000000000000000010000000000000000000000000000000100000000000000000000000000000001000000000000000000000000000000010000000000000000000000000000000100000000000000000000000000000001 8)
#8670
1g#
#8672
0g#
1|+
#8674
b100000001000000000001001100000000000000010000000000011000000000000000000000000000000000010000000000000000000000000000000100000000000000000000000000000001000000000000000000000000000000010000000000000000000000000000000100000000000000000000000000000001 "
b0 8)
0|+
#8690
b100000001000000000001001000000000000000010000000000011000000000000000000000000000000000010000000000000000000000000000000100000000000000000000000000000001000000000000000000000000000000010000000000000000000000000000000100000000000000000000000000000001 8)
#8694
1|+
#8696
b0 8)
0|+
#8698
1g#
#8700
0g#
#8702
b100000001000000000001010000000000000000010000000000011000000000000000000000000000000000010000000000000000000000000000000100000000000000000000000000000001000000000000000000000000000000010000000000000000000000000000000100000000000000000000000000000001 "
#8712
b100000001000000000001001100000000000000010000000000011000000000000000000000000000000000010000000000000000000000000000000100000000000000000000000000000001000000000000000000000000000000010000000000000000000000000000000100000000000000000000000000000001 8)
#8716
1|+
#8718
b0 8)
0|+
#8726
1g#
#8728
0g#
#8730
b100000001000000000001010100000000000000010000000000011000000000000000000000000000000000010000000000000000000000000000000100000000000000000000000000000001000000000000000000000000000000010000000000000000000000000000000100000000000000000000000000000001 "
#8754
1g#
b100000001000000000001010000000000000000010000000000011000000000000000000000000000000000010000000000000000000000000000000100000000000000000000000000000001000000000000000000000000000000010000000000000000000000000000000100000000000000000000000000000001 8)
#8756
0g#
#8758
b100000001000000000001011000000000000000010000000000011000000000000000000000000000000000010000000000000000000000000000000100000000000000000000000000000001000000000000000000000000000000010000000000000000000000000000000100000000000000000000000000000001 "
1|+
#8760
b0 8)
0|+
#8776
b100000001000000000001010100000000000000010000000000011000000000000000000000000000000000010000000000000000000000000000000100000000000000000000000000000001000000000000000000000000000000010000000000000000000000000000000100000000000000000000000000000001 8)
#8780
1|+
#8782
1g#
b0 8)
0|+
#8784
0g#
#8786
b100000001000000000001011100000000000000010000000000011000000000000000000000000000000000010000000000000000000000000000000100000000000000000000000000000001000000000000000000000000000000010000000000000000000000000000000100000000000000000000000000000001 "
#8798
b100000001000000000001011000000000000000010000000000011000000000000000000000000000000000010000000000000000000000000000000100000000000000000000000000000001000000000000000000000000000000010000000000000000000000000000000100000000000000000000000000000001 8)
#8802
1|+
#8804
b0 8)
0|+
#8810
1g#
#8812
0g#
#8814
b100000001000000000001100000000000000000010000000000011000000000000000000000000000000000010000000000000000000000000000000100000000000000000000000000000001000000000000000000000000000000010000000000000000000000000000000100000000000000000000000000000001 "
#8822
b100000001000000000001011100000000000000010000000000011000000000000000000000000000000000010000000000000000000000000000000100000000000000000000000000000001000000000000000000000000000000010000000000000000000000000000000100000000000000000000000000000001 8)
#8826
1|+
#8828
b0 8)
0|+
#8838
1g#
#8840
0g#
#8842
b100000001000000000001100100000000000000010000000000011000000000000000000000000000000000010000000000000000000000000000000100000000000000000000000000000001000000000000000000000000000000010000000000000000000000000000000100000000000000000000000000000001 "
#8864
b100000001000000000001100000000000000000010000000000011000000000000000000000000000000000010000000000000000000000000000000100000000000000000000000000000001000000000000000000000000000000010000000000000000000000000000000100000000000000000000000000000001 8)
#8866
1g#
#8868
0g#
1|+
#8870
b100000001000000000001101000000000000000010000000000011000000000000000000000000000000000010000000000000000000000000000000100000000000000000000000000000001000000000000000000000000000000010000000000000000000000000000000100000000000000000000000000000001 "
b0 8)
0|+
#8886
b100000001000000000001100100000000000000010000000000011000000000000000000000000000000000010000000000000000000000000000000100000000000000000000000000000001000000000000000000000000000000010000000000000000000000000000000100000000000000000000000000000001 8)
#8890
1|+
#8892
b0 8)
0|+
#8894
1g#
#8896
0g#
#8898
b100000001000000000001101100000000000000010000000000011000000000000000000000000000000000010000000000000000000000000000000100000000000000000000000000000001000000000000000000000000000000010000000000000000000000000000000100000000000000000000000000000001 "
#8908
b100000001000000000001101000000000000000010000000000011000000000000000000000000000000000010000000000000000000000000000000100000000000000000000000000000001000000000000000000000000000000010000000000000000000000000000000100000000000000000000000000000001 8)
#8912
1|+
#8914
b0 8)
0|+
#8922
1g#
#8924
0g#
#8926
b100000001000000000001110000000000000000010000000000011000000000000000000000000000000000010000000000000000000000000000000100000000000000000000000000000001000000000000000000000000000000010000000000000000000000000000000100000000000000000000000000000001 "
#8950
1g#
b100000001000000000001101100000000000000010000000000011000000000000000000000000000000000010000000000000000000000000000000100000000000000000000000000000001000000000000000000000000000000010000000000000000000000000000000100000000000000000000000000000001 8)
#8952
0g#
#8954
b100000001000000000001110100000000000000010000000000011000000000000000000000000000000000010000000000000000000000000000000100000000000000000000000000000001000000000000000000000000000000010000000000000000000000000000000100000000000000000000000000000001 "
1|+
#8956
b0 8)
0|+
#8972
b100000001000000000001110000000000000000010000000000011000000000000000000000000000000000010000000000000000000000000000000100000000000000000000000000000001000000000000000000000000000000010000000000000000000000000000000100000000000000000000000000000001 8)
#8976
1|+
#8978
1g#
b0 8)
0|+
#8980
0g#
#8982
b100000001000000000001111000000000000000010000000000011000000000000000000000000000000000010000000000000000000000000000000100000000000000000000000000000001000000000000000000000000000000010000000000000000000000000000000100000000000000000000000000000001 "
#8994
b100000001000000000001110100000000000000010000000000011000000000000000000000000000000000010000000000000000000000000000000100000000000000000000000000000001000000000000000000000000000000010000000000000000000000000000000100000000000000000000000000000001 8)
#8998
1|+
#9000
b0 8)
0|+
#9006
1g#
#9008
0g#
#9010
b100000001000000000001111100000000000000010000000000011000000000000000000000000000000000010000000000000000000000000000000100000000000000000000000000000001000000000000000000000000000000010000000000000000000000000000000100000000000000000000000000000001 "
#9018
b100000001000000000001111000000000000000010000000000011000000000000000000000000000000000010000000000000000000000000000000100000000000000000000000000000001000000000000000000000000000000010000000000000000000000000000000100000000000000000000000000000001 8)
#9022
1|+
#9024
b0 8)
0|+
#9034
1g#
#9036
0g#
#9038
b100000001000000000010000000000000000000010000000000011000000000000000000000000000000000010000000000000000000000000000000100000000000000000000000000000001000000000000000000000000000000010000000000000000000000000000000100000000000000000000000000000001 "
#9060
b100000001000000000001111100000000000000010000000000011000000000000000000000000000000000010000000000000000000000000000000100000000000000000000000000000001000000000000000000000000000000010000000000000000000000000000000100000000000000000000000000000001 8)
#9062
1g#
#9064
0g#
1|+
#9066
b100000001000000000010000100000000000000010000000000011000000000000000000000000000000000010000000000000000000000000000000100000000000000000000000000000001000000000000000000000000000000010000000000000000000000000000000100000000000000000000000000000001 "
b0 8)
0|+
#9082
b100000001000000000010000000000000000000010000000000011000000000000000000000000000000000010000000000000000000000000000000100000000000000000000000000000001000000000000000000000000000000010000000000000000000000000000000100000000000000000000000000000001 8)
#9086
1|+
#9088
b0 8)
0|+
#9090
1g#
#9092
0g#
#9094
b100000001000000000010001000000000000000010000000000011000000000000000000000000000000000010000000000000000000000000000000100000000000000000000000000000001000000000000000000000000000000010000000000000000000000000000000100000000000000000000000000000001 "
#9104
b100000001000000000010000100000000000000010000000000011000000000000000000000000000000000010000000000000000000000000000000100000000000000000000000000000001000000000000000000000000000000010000000000000000000000000000000100000000000000000000000000000001 8)
#9108
1|+
#9110
b0 8)
0|+
#9118
1g#
#9120
0g#
#9122
b100000001000000000010001100000000000000010000000000011000000000000000000000000000000000010000000000000000000000000000000100000000000000000000000000000001000000000000000000000000000000010000000000000000000000000000000100000000000000000000000000000001 "
#9146
1g#
b100000001000000000010001000000000000000010000000000011000000000000000000000000000000000010000000000000000000000000000000100000000000000000000000000000001000000000000000000000000000000010000000000000000000000000000000100000000000000000000000000000001 8)
#9148
0g#
#9150
1|+
#9152
b0 8)
0|+
#9168
b100000001000000000010001100000000000000010000000000011000000000000000000000000000000000010000000000000000000000000000000100000000000000000000000000000001000000000000000000000000000000010000000000000000000000000000000100000000000000000000000000000001 8)
#9172
1|+
#9174
b0 8)
0|+
