Uso_Bus_Paralelo_Simple/vivado/.Xil/Vivado-18217-hpc-lab1/hw_ila_data_1/zip_work/waveform.vcd
$date
        2019-May-16 18:53:42
$end
$version
        Vivado v2018.3 (64-bit)
$end
$timescale
        1ps
$end
$scope module dut $end
$var reg 32 " design_1_i/sumador_0_out_fifo_din [31:0] $end
$var reg 1 B design_1_i/fifo_generator_0_full $end
$var reg 1 C design_1_i/sumador_0_out_fifo_write $end
$var reg 32 D design_1_i/fifo_generator_0_dout [31:0] $end
$var reg 1 d design_1_i/fifo_generator_0_empty $end
$var reg 1 e design_1_i/sumador_0_in_fifo_read $end
$var reg 1 f design_1_i/flipflopD_0_Q $end
$var reg 1 g design_1_i/rst_ps7_0_100M_peripheral_aresetn $end
$var reg 1 h _TRIGGER $end
$var reg 1 i _WINDOW $end
$var reg 1 j _GAP $end
$upscope $end
$enddefinitions $end
#0
$dumpvars
b1 "
0B
0C
b1 D
1d
0e
0f
1g
0h
1i
0j
$end
#221
b10 "
1C
#222
1f
#223
0d
#237
0C
#238
1B
0f
#239
1e
#240
0B
b10 D
#255
1d
0e
1h
